{
	"info": {
		"_postman_id": "7e10324e-eca3-4edd-a34e-c8ebc1b0f0db",
		"name": "UserUpdate",
		"schema": "https://schema.getpostman.com/json/collection/v2.1.0/collection.json"
	},
	"item": [
		{
			"name": "http://localhost:3001/api/user/update",
			"request": {
				"method": "GET",
				"header": [
					{
						"key": "auth-token",
						"value": "eyJhbGciOiJIUzI1NiIsInR5cCI6IkpXVCJ9.eyJfaWQiOiI1ZWE2YzgxZGJmYTZjZTA3YWY4N2ZkZmEiLCJpYXQiOjE1ODc5OTAyNTR9.-LlJyPSSJeErHjyx9p4mmTuLKllO-yxW8_QUaTfE-Q4",
						"type": "text"
					}
				],
				"url": {
					"raw": "http://localhost:3001/api/user/update",
					"protocol": "http",
					"host": [
						"localhost"
					],
					"port": "3001",
					"path": [
						"api",
						"user",
						"update"
					]
				}
			},
			"response": []
		},
		{
			"name": "http://localhost:3001/api/user/update/email",
			"request": {
				"method": "POST",
				"header": [
					{
						"key": "auth-token",
						"value": "eyJhbGciOiJIUzI1NiIsInR5cCI6IkpXVCJ9.eyJfaWQiOiI1ZWE2YzgxZGJmYTZjZTA3YWY4N2ZkZmEiLCJpYXQiOjE1ODc5OTAyNTR9.-LlJyPSSJeErHjyx9p4mmTuLKllO-yxW8_QUaTfE-Q4",
						"type": "text"
					}
				],
				"body": {
					"mode": "raw",
					"raw": "{\n\t\"email\": \"student2@gmail.com\"\n}",
					"options": {
						"raw": {
							"language": "json"
						}
					}
				},
				"url": {
					"raw": "http://localhost:3001/api/user/update/email",
					"protocol": "http",
					"host": [
						"localhost"
					],
					"port": "3001",
					"path": [
						"api",
						"user",
						"update",
						"email"
					]
				}
			},
			"response": []
		},
		{
			"name": "http://localhost:3001/api/user/update/name",
			"request": {
				"method": "POST",
				"header": [
					{
						"key": "auth-token",
						"value": "eyJhbGciOiJIUzI1NiIsInR5cCI6IkpXVCJ9.eyJfaWQiOiI1ZWE2YzgxZGJmYTZjZTA3YWY4N2ZkZmEiLCJpYXQiOjE1ODc5OTAyNTR9.-LlJyPSSJeErHjyx9p4mmTuLKllO-yxW8_QUaTfE-Q4",
						"type": "text"
					}
				],
				"body": {
					"mode": "raw",
					"raw": "{\n\t\"name\": \"Student2\"\n}",
					"options": {
						"raw": {
							"language": "json"
						}
					}
				},
				"url": {
					"raw": "http://localhost:3001/api/user/update/name",
					"protocol": "http",
					"host": [
						"localhost"
					],
					"port": "3001",
					"path": [
						"api",
						"user",
						"update",
						"name"
					]
				}
			},
			"response": []
		},
		{
			"name": "http://localhost:3001/api/user/update/password",
			"request": {
				"method": "POST",
				"header": [
					{
						"key": "auth-token",
						"value": "eyJhbGciOiJIUzI1NiIsInR5cCI6IkpXVCJ9.eyJfaWQiOiI1ZWE2YzgxZGJmYTZjZTA3YWY4N2ZkZmEiLCJpYXQiOjE1ODc5OTAyNTR9.-LlJyPSSJeErHjyx9p4mmTuLKllO-yxW8_QUaTfE-Q4",
						"type": "text"
					}
				],
				"body": {
					"mode": "raw",
					"raw": "{\n\t\"password\": \"123456\"\n}",
					"options": {
						"raw": {
							"language": "json"
						}
					}
				},
				"url": {
					"raw": "http://localhost:3001/api/user/update/password",
					"protocol": "http",
					"host": [
						"localhost"
					],
					"port": "3001",
					"path": [
						"api",
						"user",
						"update",
						"password"
					]
				}
			},
			"response": []
		}
	],
	"protocolProfileBehavior": {}
}